<svg id="icon_slide_arrow.svg_icon_slide_arrow.png" data-name="icon_slide_arrow.svg, icon_slide_arrow.png" xmlns="http://www.w3.org/2000/svg" width="11.43" height="18.62" viewBox="0 0 11.43 18.62">
  <defs>
    <style>
      .cls-1 {
        fill: #fff;
        fill-rule: evenodd;
      }
    </style>
  </defs>
  <path id="_" data-name="&gt;" class="cls-1" d="M1357.88,2041.81l2.12-2.12,9.31,9.31-2.12,2.12Zm9.31,5.07,2.12,2.12-9.31,9.31-2.12-2.12Z" transform="translate(-1357.88 -2039.69)"/>
</svg>
