<svg id="icon_link_arrow.svg_icon_link_arrow.png" data-name="icon_link_arrow.svg, icon_link_arrow.png" xmlns="http://www.w3.org/2000/svg" width="10.657" height="11.12" viewBox="0 0 10.657 11.12">
  <defs>
    <style>
      .cls-1 {
        fill: #fff;
        fill-rule: evenodd;
      }
    </style>
  </defs>
  <path id="長方形_2" data-name="長方形 2" class="cls-1" d="M792.681,1697.7l1.3,1.3-5.563,5.56-1.3-1.3Z" transform="translate(-783.312 -1693.44)"/>
  <path id="長方形_2-2" data-name="長方形 2" class="cls-1" d="M788.417,1693.44l5.563,5.56-1.3,1.3-5.563-5.56Z" transform="translate(-783.312 -1693.44)"/>
  <path id="長方形_1" data-name="長方形 1" class="cls-1" d="M783.3,1698.08h8.391v1.84H783.3v-1.84Z" transform="translate(-783.312 -1693.44)"/>
</svg>
