<svg id="title_place_events.svg_title_place_events.png" data-name="title_place_events.svg, title_place_events.png" xmlns="http://www.w3.org/2000/svg" width="162.062" height="13.219" viewBox="0 0 162.062 13.219">
  <defs>
    <style>
      .cls-1 {
        fill: #6cb209;
        fill-rule: evenodd;
      }
    </style>
  </defs>
  <path id="参加型自主イベント会場_" data-name="参加型自主イベント会場 " class="cls-1" d="M774.814,685.462a13.753,13.753,0,0,1-4.1,1.807,12.41,12.41,0,0,0,2.129-2.1h2.62a11.627,11.627,0,0,0,4.3,3.165,4.358,4.358,0,0,1,1.107-1.289,8.258,8.258,0,0,1-3.18-1.876H780.6v-1.443h-1.933a13.357,13.357,0,0,1,1.316-1.121,17.3,17.3,0,0,0-3.4-2.914l-1.218.953a11,11,0,0,1,.994.756c-0.448.014-2.661,0.057-3.165,0.071,0.308-.575.42-0.757,0.728-1.4,0.2-.015.35-0.07,0.35-0.2a0.185,0.185,0,0,0-.182-0.183l-1.849-.266a12.643,12.643,0,0,1-.882,2.073c-1.976.043-2.186,0.043-2.9,0.029l0.238,1.442a0.285,0.285,0,0,0,.182.294,0.362,0.362,0,0,0,.266-0.294c0.21,0,2.788-.14,3.208-0.154a6.286,6.286,0,0,1-.476.911h-4.006v1.443h2.815a10.435,10.435,0,0,1-3.236,2.1,3.142,3.142,0,0,1,1.331,1.19,9,9,0,0,0,1.821-1.106,4.073,4.073,0,0,1,.869,1.218,15.937,15.937,0,0,0,4.132-1.9,1.056,1.056,0,0,0,.336.1,0.136,0.136,0,0,0,.154-0.14,0.249,0.249,0,0,0-.112-0.238Zm-1.008-1.737c0.168-.323.238-0.491,0.294-0.617,0.2-.014.462-0.028,0.462-0.224a0.259,0.259,0,0,0-.126-0.182c1.667-.07,1.849-0.084,3.166-0.154a13.869,13.869,0,0,1,1.037,1.177h-4.833Zm4.454,4.65c-3.347,2.507-7.774,2.675-9.427,2.647a3.465,3.465,0,0,1,.771,1.471,23.68,23.68,0,0,0,5.407-.868,12.627,12.627,0,0,0,4.2-1.947,0.777,0.777,0,0,0,.308.084,0.149,0.149,0,0,0,.14-0.168,0.306,0.306,0,0,0-.154-0.225Zm-1.765-1.526a14.884,14.884,0,0,1-6.541,2.366,2.919,2.919,0,0,1,.952,1.289,18.708,18.708,0,0,0,6.486-2.339,1,1,0,0,0,.28.084,0.151,0.151,0,0,0,.168-0.154,0.242,0.242,0,0,0-.084-0.168Zm8.876-4.749h-1.9V683.8h1.9a12.37,12.37,0,0,1-2.4,7.592,9.168,9.168,0,0,1,1.569.91,12.385,12.385,0,0,0,2.073-4.412,17.221,17.221,0,0,0,.518-4.09h1.233a35.994,35.994,0,0,1-.406,6.149,0.837,0.837,0,0,1-.841.868,5.428,5.428,0,0,1-1.064-.14,4.055,4.055,0,0,1,.532,1.751,1.428,1.428,0,0,0,.35.029,2.287,2.287,0,0,0,2.284-1.177c0.588-1.191.63-3.11,0.742-9.175h-2.8v-1.919a0.475,0.475,0,0,0,.351-0.336,0.239,0.239,0,0,0-.267-0.183l-1.876-.084V682.1Zm8.866,9.2v0.9h1.7V681.091h-5.225v11.234h1.737V691.3h1.793Zm-1.793-1.667V682.9h1.793v6.738h-1.793Zm12.5-8.1h1.023v-1.4h-6.093v1.4h1.064v1.176h-1.484v1.443h1.358a4.377,4.377,0,0,1-1.5,2.619,6.137,6.137,0,0,1,1.569.8,5.938,5.938,0,0,0,1.541-3.418h0.869v3.025h1.582v0.743h-3.852v1.442h3.852V690.6h-5.491v1.485h12.663V690.6h-5.491v-1.233h3.824v-1.442h-3.824V687.3c0.238-.127.337-0.168,0.337-0.3a0.222,0.222,0,0,0-.253-0.182l-1.7-.056v-2.605h1.345v-1.443h-1.345V681.54Zm-1.652,1.176h-0.771V681.54h0.771v1.176Zm3.642-2.3V685.6h1.61v-4.679a0.361,0.361,0,0,0,.309-0.266c0-.14-0.112-0.14-0.253-0.154Zm2.913-.77v5.574c0,0.463,0,.644-0.462.644a6.8,6.8,0,0,1-.939-0.07,4.336,4.336,0,0,1,.575,1.794c2.269,0,2.479-.421,2.479-1.457v-5.953a0.4,0.4,0,0,0,.28-0.281,0.159,0.159,0,0,0-.2-0.14Zm10.691,1.722a12.875,12.875,0,0,0,.574-1.162c0.21-.056.406-0.1,0.406-0.266,0-.084-0.07-0.154-0.252-0.183l-2.059-.252a8.563,8.563,0,0,1-.616,1.863h-2.774v11.011h1.807v-0.813h6.4v0.813h1.793V681.371h-5.281Zm3.488,5.785h-6.4V685.77h6.4v1.386Zm-6.4-4.258h6.4v1.387h-6.4V682.9Zm6.4,7.144h-6.4v-1.387h6.4v1.387ZM836.3,682.31a10.151,10.151,0,0,1,.91-0.854,13.674,13.674,0,0,0-2.633-2.06l-1.177,1.163a7.794,7.794,0,0,1,2.115,1.751h-5.673v1.512h5.043v2.34h-3.936v1.583h3.936v2.886h-5.533v1.5h12.831v-1.5H836.72v-2.886h3.838v-1.583H836.72v-2.34h5.029V682.31H836.3Zm15.645,1.821a22.7,22.7,0,0,0,3.292-3.054,0.793,0.793,0,0,0,.252.042,0.223,0.223,0,0,0,.252-0.182,0.264,0.264,0,0,0-.126-0.2l-1.681-1.289a19.553,19.553,0,0,1-9.721,6.542,6.275,6.275,0,0,1,1.429,1.681,24.674,24.674,0,0,0,4.286-2.143v6.653h2.017v-8.054Zm14.736-2.381a11.163,11.163,0,0,1,1.485,1.527c0.28-.309.672-0.757,0.84-0.925a7.218,7.218,0,0,0-1.5-1.5Zm1.415-1.359a12.206,12.206,0,0,1,1.456,1.5,8.118,8.118,0,0,1,.827-0.911,12.759,12.759,0,0,0-1.457-1.429Zm-9.441,7.662a0.322,0.322,0,0,0,.2.14c0.182,0,.182-0.168.182-0.322,0.518-.771,1.891-2.452,2.493-3.166,0.687-.826.939-1.079,1.275-1.079,0.378,0,.462.1,1.527,1.429a56.619,56.619,0,0,0,4.972,5.519,14.729,14.729,0,0,1,1.261-1.723,31.414,31.414,0,0,1-4.805-4.9c-1.6-1.975-2.045-2.382-2.885-2.382s-1.4.434-3.026,2.4a17.034,17.034,0,0,1-2.591,2.619Zm14.993-6.248a14.036,14.036,0,0,1,3.684,2.382,12.911,12.911,0,0,1,1.163-1.625,15.422,15.422,0,0,0-3.67-2.409Zm1.275,10.044a0.376,0.376,0,0,0,.252.238c0.2,0,.21-0.168.238-0.308,6.612-2.381,9.245-6.346,10.156-7.746a8.344,8.344,0,0,1-1.219-1.639A16.574,16.574,0,0,1,873.83,690Zm17.152-7.3v-4.2a0.267,0.267,0,0,0,.266-0.21c0-.126-0.126-0.14-0.266-0.155l-1.989-.111v12.284h1.989v-6.835a19.386,19.386,0,0,1,4.426,3.137c0.6-.714.8-0.952,1.345-1.527a21.046,21.046,0,0,0-5.057-3.39Zm18.776-.392a16.02,16.02,0,0,0,2.031,1.009,4.735,4.735,0,0,1,1.163-1.472,12.983,12.983,0,0,1-5.687-3.6,0.326,0.326,0,0,0,.322-0.211,0.213,0.213,0,0,0-.21-0.181l-2.031-.3c-0.967,1.821-3.852,3.852-5.827,4.483a6.149,6.149,0,0,1,1.3,1.4,15.135,15.135,0,0,0,1.821-.98v1.233h7.116v-1.387Zm-6.639-.168a19.982,19.982,0,0,0,3.039-2.69,15.344,15.344,0,0,0,3.32,2.69h-6.359Zm-2.284,8.152c0.042,0.239.112,0.322,0.2,0.322a0.419,0.419,0,0,0,.323-0.364c0.63-.07,3.768-0.392,4.468-0.476,0.9-.1,2.9-0.35,3.754-0.476a13.009,13.009,0,0,1,1.023,1.47,7.366,7.366,0,0,1,1.358-1.232,19.47,19.47,0,0,0-3.207-3.474h3.291v-1.555H901.578v1.555h3.32a17.008,17.008,0,0,1-1.163,2.381c-0.182,0-1.708.1-2.157,0.126Zm6.4-3.376a12.069,12.069,0,0,1,1.12,1.023c-1.737.182-1.933,0.2-3.7,0.35,0.266-.434.84-1.443,1.05-1.919a0.428,0.428,0,0,0,.406-0.21,0.186,0.186,0,0,0-.042-0.1h2.171Zm20.053-8.838h-6.3v4.86h6.3v-4.86Zm-4.651,1.9v-0.645h3.11v0.645h-3.11Zm3.11,1.05v0.687h-3.11v-0.687h3.11Zm-3.348,5.449a8.507,8.507,0,0,1-3.389,2.886,3.376,3.376,0,0,1,1.064.966,8.318,8.318,0,0,0,2.409-1.835,12.555,12.555,0,0,0,1.583-2.017h0.589a10.27,10.27,0,0,1-3.1,3.474,3.239,3.239,0,0,1,1.247.8,11.21,11.21,0,0,0,1.722-1.738,5.024,5.024,0,0,1,.5,1.541c0.21,0.014.336,0.028,0.518,0.028a2.206,2.206,0,0,0,1.919-.728c0.7-1.135.714-3.894,0.728-4.707h-5.546a5.807,5.807,0,0,0,.294-0.518H929.5v-1.219h-8.461v1.219h1.429a9.678,9.678,0,0,1-1.051,1.443,4.24,4.24,0,0,1,.14-1.387,9.956,9.956,0,0,1-1.527.644v-2.955h1.443v-1.541h-1.443v-2.479c0.239-.085.309-0.155,0.309-0.253,0-.153-0.141-0.153-0.309-0.167l-1.722-.1v3h-1.569v1.541h1.569v3.5a11.764,11.764,0,0,1-1.709.378l0.42,1.639a0.336,0.336,0,0,0,.21.322c0.182,0,.2-0.182.224-0.364,0.224-.084,1.807-0.6,3.572-1.359a9.88,9.88,0,0,1-1.205.981,2.932,2.932,0,0,1,1.135.826,12.34,12.34,0,0,0,1.849-1.821h0.686Zm4.147,0a7.745,7.745,0,0,1-.309,1.961,0.588,0.588,0,0,1-.686.532,7.838,7.838,0,0,1-.924-0.084,13.228,13.228,0,0,0,1.456-2.409h0.463Z" transform="translate(-767.438 -679.406)"/>
</svg>
