<svg id="icon_link.svg_icon_link.png" data-name="icon_link.svg, icon_link.png" xmlns="http://www.w3.org/2000/svg" width="20" height="20" viewBox="0 0 20 20">
  <defs>
    <style>
      .cls-1 {
        fill: #f39800;
      }

      .cls-2 {
        fill: #fff;
        fill-rule: evenodd;
      }
    </style>
  </defs>
  <circle id="楕円形_1" data-name="楕円形 1" class="cls-1" cx="10" cy="10" r="10"/>
  <g id="icon_link_arrow.svg_icon_link_arrow.png" data-name="icon_link_arrow.svg, icon_link_arrow.png">
    <path id="長方形_2" data-name="長方形 2" class="cls-2" d="M792.681,1697.7l1.3,1.3-5.563,5.56-1.3-1.3Z" transform="translate(-778.5 -1689)"/>
    <path id="長方形_2-2" data-name="長方形 2" class="cls-2" d="M788.417,1693.44l5.563,5.56-1.3,1.3-5.563-5.56Z" transform="translate(-778.5 -1689)"/>
    <path id="長方形_1" data-name="長方形 1" class="cls-2" d="M783.3,1698.08h8.391v1.84H783.3v-1.84Z" transform="translate(-778.5 -1689)"/>
  </g>
</svg>
